a = 100;
b = 100;
lc = 25;
lc_frac = 600;
l = 100;
phi = Pi / 4;
h = 10;
Nx_pt = 30 + 1;
Ny_pt = 30 + 1;
Nz = 1;

Point(1) = {0, 0, 0, lc};
Point(2) = {a, 0, 0, lc};
Point(3) = {a, b, 0, lc};
Point(4) = {0, b, 0, lc};
//Point(5) = {a/2, a/2 + 1, 0, lc};
//Point(5) = {a/2 - l * Cos(phi) / 2, a/2 - l * Sin(phi) / 2, 0, lc_frac};
//Point(6) = {a/2 + l * Cos(phi) / 2, a/2 + l * Sin(phi) / 2, 0, lc_frac};

Line(1) = {1,2};
Line(2) = {3,2};
Line(3) = {3,4};
Line(4) = {4,1};
//Line(5) = {5, 6};
Transfinite Curve{1} = Nx_pt;
Transfinite Curve{2} = Ny_pt;
Transfinite Curve{3} = Nx_pt;
Transfinite Curve{4} = Ny_pt;

Line Loop(1) = {4,1,-2,3};
//Line Loop(2) = {5, -5};

Plane Surface(1) = {1};
Transfinite Surface{1} = {1, 2, 3, 4};
//Plane Surface(1) = {1, -2};
Point{5} In Surface{1};
Recombine Surface{1};

out[] = Extrude {0, 0, h} { 
		Surface{1};
		Layers{Nz};
		Recombine;
	};

Mesh.Smoothing = 0;
Physical Volume("matrix", 99991) = {out[1]};
Physical Surface("boundary_xm", 991) = {out[2]};
Physical Surface("boundary_xp", 992) = {out[4]};
Physical Surface("boundary_ym", 993) = {out[3]};
Physical Surface("boundary_yp", 994) = {out[5]};
Physical Surface("boundary_zm", 995) = {1};
Physical Surface("boundary_zp", 996) = {out[0]};
Mesh 3;
Coherence Mesh;
Mesh.MshFileVersion = 2.1;